{
    "app" : {
        "host": "localhost",
        "port": 12345,
        "name": "Minificator"
    },
    "db" : {
        "hostname": "localhost",
        "database": "minificator",
        "username": "root",
        "password": ""
    }
}